{
  "project_info": {
    "project_number": "558172708183",
    "firebase_url": "https://myhouse-e13f2.firebaseio.com",
    "project_id": "myhouse-e13f2",
    "storage_bucket": "myhouse-e13f2.appspot.com"
  },
  "client": [
    {
      "client_info": {
        "mobilesdk_app_id": "1:558172708183:android:6e023e01e7775a42",
        "android_client_info": {
          "package_name": "com.example.tobia.myhouse"
        }
      },
      "oauth_client": [
        {
          "client_id": "558172708183-7ck5mk37c57hk3lajc3a60gojdaptv17.apps.googleusercontent.com",
          "client_type": 1,
          "android_info": {
            "package_name": "com.example.tobia.myhouse",
            "certificate_hash": "e83557f207b3434b81090c92758ac31a35dda84b"
          }
        },
        {
          "client_id": "558172708183-cqsqfge0s5nnco12namhej9att7rpuj9.apps.googleusercontent.com",
          "client_type": 3
        }
      ],
      "api_key": [
        {
          "current_key": "AIzaSyBXbutnY8h225-dxhXemSeDP7KUzewlKkc"
        }
      ],
      "services": {
        "analytics_service": {
          "status": 1
        },
        "appinvite_service": {
          "status": 2,
          "other_platform_oauth_client": [
            {
              "client_id": "558172708183-cqsqfge0s5nnco12namhej9att7rpuj9.apps.googleusercontent.com",
              "client_type": 3
            }
          ]
        },
        "ads_service": {
          "status": 2
        }
      }
    }
  ],
  "configuration_version": "1"
}